test.vcd
$date
	Thu Mar 20 13:59:19 2025
$end
$version
	Icarus Verilog
$end
$timescale
	1ps
$end
$scope module tb_washing_machine $end
$var wire 4 ! timer_display [3:0] $end
$var wire 3 " led_state [2:0] $end
$var wire 2 # led_cycle [1:0] $end
$var wire 1 $ door_lock $end
$var wire 1 % buzzer $end
$var reg 1 & clk $end
$var reg 1 ' cycle_select $end
$var reg 1 ( door_open $end
$var reg 1 ) reset $end
$var reg 1 * start_stop $end
$scope module uut $end
$var wire 1 & clk $end
$var wire 1 ' cycle_select $end
$var wire 1 ( door_open $end
$var wire 1 ) reset $end
$var wire 1 * start_stop $end
$var parameter 3 + COMPLETE $end
$var parameter 2 , DELICATE $end
$var parameter 3 - DRAIN $end
$var parameter 3 . FILL $end
$var parameter 2 / HEAVY $end
$var parameter 3 0 IDLE $end
$var parameter 2 1 NORMAL $end
$var parameter 3 2 PAUSED $end
$var parameter 3 3 RINSE $end
$var parameter 3 4 SPIN $end
$var parameter 3 5 WASH $end
$var reg 1 % buzzer $end
$var reg 3 6 current_state [2:0] $end
$var reg 1 $ door_lock $end
$var reg 6 7 drain_time [5:0] $end
$var reg 6 8 fill_time [5:0] $end
$var reg 2 9 led_cycle [1:0] $end
$var reg 3 : led_state [2:0] $end
$var reg 3 ; next_state [2:0] $end
$var reg 6 < rinse_time [5:0] $end
$var reg 2 = selected_cycle [1:0] $end
$var reg 6 > spin_time [5:0] $end
$var reg 6 ? timer [5:0] $end
$var reg 4 @ timer_display [3:0] $end
$var reg 6 A wash_time [5:0] $end
$upscope $end
$upscope $end
$enddefinitions $end
$comment Show the parameter values. $end
$dumpall
b10 5
b101 4
b100 3
b110 2
b1 1
b0 0
b10 /
b1 .
b11 -
b0 ,
b111 +
$end
#0
$dumpvars
b1010 A
bx @
b0 ?
b1000 >
b0 =
b101 <
b0 ;
b0 :
b0 9
b101 8
b11 7
b0 6
0*
1)
0(
0'
0&
0%
0$
b0 #
b0 "
bx !
$end
#10000
1&
#20000
0&
0)
#30000
1&
#40000
0&
#50000
1&
#60000
1$
b1 ;
0&
1*
#70000
b101 !
b101 @
b1 "
b1 :
b1 6
1&
#80000
0&
#90000
1&
#100000
0&
0*
#110000
1&
#120000
0&
#130000
1&
#140000
0&
#150000
1&
#160000
0&
#170000
1&
#180000
0&
#190000
1&
#200000
0&
#210000
1&
#220000
0&
#230000
1&
#240000
0&
#250000
1&
#260000
0&
#270000
1&
#280000
0&
#290000
1&
#300000
0&
#310000
1&
#320000
0&
#330000
1&
#340000
0&
#350000
1&
#360000
0&
#370000
1&
#380000
0&
#390000
1&
#400000
0&
#410000
1&
#420000
0&
#430000
1&
#440000
0&
#450000
1&
#460000
0&
#470000
1&
#480000
0&
#490000
1&
#500000
0&
#510000
1&
#520000
0&
#530000
1&
#540000
0&
#550000
1&
#560000
0&
#570000
1&
#580000
0&
#590000
1&
#600000
0&
#610000
1&
#620000
0&
#630000
1&
#640000
0&
#650000
1&
#660000
0&
#670000
1&
#680000
0&
#690000
1&
#700000
0&
#710000
1&
#720000
0&
#730000
1&
#740000
0&
#750000
1&
#760000
0&
#770000
1&
#780000
0&
#790000
1&
#800000
0&
#810000
1&
#820000
0&
#830000
1&
#840000
0&
#850000
1&
#860000
0&
#870000
1&
#880000
0&
#890000
1&
#900000
0&
#910000
1&
#920000
0&
#930000
1&
#940000
0&
#950000
1&
#960000
0&
#970000
1&
#980000
0&
#990000
1&
#1000000
0&
#1010000
1&
#1020000
0&
#1030000
1&
#1040000
0&
#1050000
1&
#1060000
0&
#1070000
1&
#1080000
0&
#1090000
1&
#1100000
0&
#1110000
1&
#1120000
0&
#1130000
1&
#1140000
0&
#1150000
1&
#1160000
0&
#1170000
1&
#1180000
0&
#1190000
1&
#1200000
0&
#1210000
1&
#1220000
0&
#1230000
1&
#1240000
0&
#1250000
1&
#1260000
0&
#1270000
1&
#1280000
0&
#1290000
1&
#1300000
0&
#1310000
1&
#1320000
0&
#1330000
1&
#1340000
0&
#1350000
1&
#1360000
0&
#1370000
1&
#1380000
0&
#1390000
1&
#1400000
0&
#1410000
1&
#1420000
0&
#1430000
1&
#1440000
0&
#1450000
1&
#1460000
0&
#1470000
1&
#1480000
0&
#1490000
1&
#1500000
0&
#1510000
1&
#1520000
0&
#1530000
1&
#1540000
0&
#1550000
1&
#1560000
0&
#1570000
1&
#1580000
0&
#1590000
1&
#1600000
0&
#1610000
1&
#1620000
0&
#1630000
1&
#1640000
0&
#1650000
1&
#1660000
0&
#1670000
1&
#1680000
0&
#1690000
1&
#1700000
0&
#1710000
1&
#1720000
0&
#1730000
1&
#1740000
0&
#1750000
1&
#1760000
0&
#1770000
1&
#1780000
0&
#1790000
1&
#1800000
0&
#1810000
1&
#1820000
0&
#1830000
1&
#1840000
0&
#1850000
1&
#1860000
0&
#1870000
1&
#1880000
0&
#1890000
1&
#1900000
0&
#1910000
1&
#1920000
0&
#1930000
1&
#1940000
0&
#1950000
1&
#1960000
0&
#1970000
1&
#1980000
0&
#1990000
1&
#2000000
0&
#2010000
1&
#2020000
0&
#2030000
1&
#2040000
0&
#2050000
1&
#2060000
0&
#2070000
1&
#2080000
0&
#2090000
1&
#2100000
0&
1*
#2110000
1&
#2120000
0&
#2130000
1&
#2140000
0&
0*
#2150000
1&
#2160000
0&
#2170000
1&
#2180000
0&
#2190000
1&
#2200000
0&
#2210000
1&
#2220000
0&
#2230000
1&
#2240000
0&
#2250000
1&
#2260000
0&
#2270000
1&
#2280000
0&
#2290000
1&
#2300000
0&
#2310000
1&
#2320000
0&
#2330000
1&
#2340000
0&
#2350000
1&
#2360000
0&
#2370000
1&
#2380000
0&
#2390000
1&
#2400000
0&
#2410000
1&
#2420000
0&
#2430000
1&
#2440000
0&
#2450000
1&
#2460000
0&
#2470000
1&
#2480000
0&
#2490000
1&
#2500000
0&
#2510000
1&
#2520000
0&
#2530000
1&
#2540000
0&
#2550000
1&
#2560000
0&
#2570000
1&
#2580000
0&
#2590000
1&
#2600000
0&
#2610000
1&
#2620000
0&
#2630000
1&
#2640000
b110 ;
0&
1(
#2650000
1%
b110 "
b110 :
b110 6
1&
#2660000
0&
#2670000
1&
#2680000
0&
#2690000
1&
#2700000
0&
#2710000
1&
#2720000
0&
#2730000
1&
#2740000
0&
1*
0(
#2750000
1&
#2760000
0&
#2770000
1&
#2780000
0&
0*
